1 10 20
100 200 125
201 210 89
900 1000 174
1 1 1
10 1 20
1 2 2
1 999999 525
825 334 171
210 379 144
17 736 171
48 748 171
866 868 29
819 126 171
533 895 179
641 241 144
616 574 132
193 489 144
321 912 179
961 746 179
48 885 179
705 369 171
354 825 171
319 215 131
511 62 144
20 595 144
782 786 122
817 513 171
18 66 113
791 516 171
89 788 171
352 424 134
349 100 144
668 794 171
529 518 124
149 880 179
246 983 179
719 272 171
885 534 179
736 103 171
897 348 179
494 219 144
928 104 179
184 579 144
7 536 144
656 262 145
430 423 103
916 15 179
730 63 171
745 863 153
953 182 179
744 417 171
68 81 116
351 478 134
913 693 179
229 921 179
265 735 171
623 203 144
8029 5931 262
2732 5981 238
7777 7922 221
2355 771 183
4353 352 238
5731 7690 262
4440 3305 238
3682 5258 238
5122 5981 236
3947 7102 262
2641 4744 238
5765 5407 236
6083 7053 262
1433 3227 217
9569 1662 262
9636 8356 260
7298 8284 252
8821 3334 262
1834 2922 217
1926 4137 238
1303 1804 180
315 1717 182
6883 1966 262
2704 8929 262
4372 3088 238
4740 9430 262
5914 9559 262
1245 2312 183
2409 6392 262
2715 1239 209
1324 9421 262
5266 175 238
9479 3506 262
9512 598 262
4507 4689 184
3702 9068 262
8150 306 262
4888 3258 238
7980 5730 262
1954 3693 217
6256 6090 262
3228 8736 262
8500 1785 262
2273 7403 262
2035 6229 262
3300 3645 194
11 9129 262
5043 611 238
128 3411 217
9130 7063 252
798220 684027 504
753169 722312 424
715673 635855 504
783649 685469 504
603800 695941 509
118815 139015 344
145677 164335 383
184662 146029 383
116004 106653 349
189646 145710 383
